…
  exposure   mediator        outcome Group `#effectdimension` `Significant(ie)`  nobs exposure0 exposure1 ie.avg
  <chr>      <chr>           <chr>   <chr>              <dbl>             <dbl> <dbl>     <dbl>     <dbl>  <dbl>
1 Leptin_VS1 SP_DENS_fast_C  Teng3M… SP                     2                 1  1898      1.56      2.53 0.0297
2 Leptin_VS1 SP_COUPL_OVERL… Teng3M… SP                     2                 1  1898      1.56      2.53 0.0292
# ℹ 187 more variables: `ie.avg.ci.2.5%` <dbl>, `ie.avg.ci.97.5%` <dbl>, ie.avg.p <dbl>, de.avg <dbl>,
#   `de.avg.ci.2.5%` <dbl>, `de.avg.ci.97.5%` <dbl>, de.avg.p <dbl>, ip.avg <dbl>, `ip.avg.ci.2.5%` <dbl>,
#   `ip.avg.ci.97.5%` <dbl>, ip.avg.p <dbl>, te <dbl>, `te.ci.2.5%` <dbl>, `te.ci.97.5%` <dbl>, te.p <dbl>,
#   ie0 <dbl>, `ie0.ci.2.5%` <dbl>, `ie0.ci.97.5%` <dbl>, ie0.p <dbl>, ie1 <dbl>, `ie1.ci.2.5%` <dbl>,
#   `ie1.ci.97.5%` <dbl>, ie1.p <dbl>, de0 <dbl>, `de0.ci.2.5%` <dbl>, `de0.ci.97.5%` <dbl>, de0.p <dbl>,
#   de1 <dbl>, `de1.ci.2.5%` <dbl>, `de1.ci.97.5%` <dbl>, de1.p <dbl>, ip0 <dbl>, `ip0.ci.2.5%` <dbl>,
#   `ip0.ci.97.5%` <dbl>, ip0.p <dbl>, ip1 <dbl>, `ip1.ci.2.5%` <dbl>, `ip1.ci.97.5%` <dbl>, ip1.p <dbl>, …
# ℹ Use `colnames()` to see all variable names
-/                                                                                                              /                                                                                                              -                                                                                                              Called from: eval(expr, p)
debug at /data/haoqisun/inflammation-sleep-dementia/mediation-analysis/step5_plot_sens.R#12: df.med <- df.med[df.med[, "Significant(ie)"] == T, ]
# A tibble: 26 × 1
   `Significant(ie)`
               <dbl>
 1                 1
 2                 1
 3                 0
 4                 0
 5                 0
 6                 0
 7                 0
 8                 0
 9                 0
10                 0
# ℹ 16 more rows
# ℹ Use `print(n = ...)` to see more rows
…
[157] "model.y.ci.lb.Med_Opiod_VS1"    "model.y.ci.lb.Med_AntiInfl_VS1" "model.y.ci.lb.AHI4"            
[160] "model.y.ci.ub.exposure"         "model.y.ci.ub.mediator"         "model.y.ci.ub.Educ"            
[163] "model.y.ci.ub.Race_Black"       "model.y.ci.ub.Race_Asian"       "model.y.ci.ub.Race_Hispanic"   
[166] "model.y.ci.ub.Race_Other"       "model.y.ci.ub.APOE4Count"       "model.y.ci.ub.Age_VS1"         
[169] "model.y.ci.ub.BMI_VS1"          "model.y.ci.ub.MH_HTN_VS1"       "model.y.ci.ub.MH_Stroke_VS1"   
[172] "model.y.ci.ub.MH_DB2_VS1"       "model.y.ci.ub.Med_Benzo_VS1"    "model.y.ci.ub.Med_Antidep_VS1" 
[175] "model.y.ci.ub.Med_Zolpidem_VS1" "model.y.ci.ub.Med_Opiod_VS1"    "model.y.ci.ub.Med_AntiInfl_VS1"
[178] "model.y.ci.ub.AHI4"             "model.y.p.exposure"             "model.y.p.mediator"            
[181] "model.y.p.Educ"                 "model.y.p.Race_Black"           "model.y.p.Race_Asian"          
[184] "model.y.p.Race_Hispanic"        "model.y.p.Race_Other"           "model.y.p.APOE4Count"          
[187] "model.y.p.Age_VS1"              "model.y.p.BMI_VS1"              "model.y.p.MH_HTN_VS1"          
[190] "model.y.p.MH_Stroke_VS1"        "model.y.p.MH_DB2_VS1"           "model.y.p.Med_Benzo_VS1"       
[193] "model.y.p.Med_Antidep_VS1"      "model.y.p.Med_Zolpidem_VS1"     "model.y.p.Med_Opiod_VS1"       
[196] "model.y.p.Med_AntiInfl_VS1"     "model.y.p.AHI4"                
# A tibble: 26 × 197
   exposure    mediator     outcome Group `#effectdimension` `Significant(ie)`  nobs exposure0 exposure1  ie.avg
   <chr>       <chr>        <chr>   <chr>              <dbl>             <dbl> <dbl>     <dbl>     <dbl>   <dbl>
 1 Leptin_VS1  SP_DENS_fas… Teng3M… SP                     2                 1  1898     1.56      2.53   0.0297
 2 Leptin_VS1  SP_COUPL_OV… Teng3M… SP                     2                 1  1898     1.56      2.53   0.0292
 3 Insulin_VS1 SP_CDENS_fa… Teng3M… SP                     2                 0  1898     2.34      2.93   0.0232
 4 Leptin_VS1  SP_CDENS_al… Teng3M… SP                     2                 0  1898     1.56      2.53   0.0282
 5 Leptin_VS1  SP_CDENS_fa… Teng3M… SP                     2                 0  1898     1.56      2.53   0.0360
 6 Insulin_VS1 SP_DENS_fas… Teng3M… SP                     2                 0  1898     2.34      2.93   0.0187
 7 CRP_VS1     SP_DENS_fas… Teng3M… SP                     2                 0  1898    -0.291     1.08  -0.0222
 8 IL6_VS1     SP_COUPL_MA… Teng3M… SP                     2                 0  1898    -0.312     0.525 -0.0213
 9 CRP_VS1     theta_rel_R… Teng3M… power                  6                 0  1898    -0.291     1.08   0.0235
10 Insulin_VS1 SP_COUPL_OV… Teng3M… SP                     2                 0  1898     2.34      2.93   0.0184
# ℹ 16 more rows
# ℹ 187 more variables: `ie.avg.ci.2.5%` <dbl>, `ie.avg.ci.97.5%` <dbl>, ie.avg.p <dbl>, de.avg <dbl>,
#   `de.avg.ci.2.5%` <dbl>, `de.avg.ci.97.5%` <dbl>, de.avg.p <dbl>, ip.avg <dbl>, `ip.avg.ci.2.5%` <dbl>,
#   `ip.avg.ci.97.5%` <dbl>, ip.avg.p <dbl>, te <dbl>, `te.ci.2.5%` <dbl>, `te.ci.97.5%` <dbl>, te.p <dbl>,
#   ie0 <dbl>, `ie0.ci.2.5%` <dbl>, `ie0.ci.97.5%` <dbl>, ie0.p <dbl>, ie1 <dbl>, `ie1.ci.2.5%` <dbl>,
#   `ie1.ci.97.5%` <dbl>, ie1.p <dbl>, de0 <dbl>, `de0.ci.2.5%` <dbl>, `de0.ci.97.5%` <dbl>, de0.p <dbl>,
#   de1 <dbl>, `de1.ci.2.5%` <dbl>, `de1.ci.97.5%` <dbl>, de1.p <dbl>, ip0 <dbl>, `ip0.ci.2.5%` <dbl>, …
# ℹ Use `print(n = ...)` to see more rows, and `colnames()` to see all variable names
…
